@startuml

title __BADGES-WALLET's Class Diagram__\n

  namespace fr.cnam.foad.nfa035.badges.wallet.dao {
    interface fr.cnam.foad.nfa035.badges.wallet.dao.BadgeWalletDAO {
    }
  }
  

  namespace fr.cnam.foad.nfa035.badges.wallet.dao {
    namespace impl {
      class fr.cnam.foad.nfa035.badges.wallet.dao.impl.MultiBadgeWalletDAOImpl {
      }
    }
  }
  

  namespace fr.cnam.foad.nfa035.badges.wallet.dao {
    namespace impl {
      class fr.cnam.foad.nfa035.badges.wallet.dao.impl.SingleBadgeWalletDAOImpl {
      }
    }
  }
  

  namespace fr.cnam.foad.nfa035.badges.wallet.fileutils.simpleaccess {
    interface fr.cnam.foad.nfa035.badges.wallet.fileutils.simpleaccess.ImageSerializer {
    }
  }
  

  namespace fr.cnam.foad.nfa035.badges.wallet.fileutils.simpleaccess {
    class fr.cnam.foad.nfa035.badges.wallet.fileutils.simpleaccess.ImageSerializerBase64Impl {
    }
  }
  

  namespace fr.cnam.foad.nfa035.badges.wallet.fileutils.streaming {
    namespace media {
      abstract class fr.cnam.foad.nfa035.badges.wallet.fileutils.streaming.media.AbstractImageFrameMedia {
      }
    }
  }
  

  namespace fr.cnam.foad.nfa035.badges.wallet.fileutils.streaming {
    namespace media {
      interface fr.cnam.foad.nfa035.badges.wallet.fileutils.streaming.media.ImageFrameMedia {
      }
    }
  }
  

  namespace fr.cnam.foad.nfa035.badges.wallet.fileutils.streaming {
    namespace media {
      interface fr.cnam.foad.nfa035.badges.wallet.fileutils.streaming.media.ResumableImageFrameMedia {
      }
    }
  }
  

  namespace fr.cnam.foad.nfa035.badges.wallet.fileutils.streaming {
    namespace media {
      namespace impl {
        class fr.cnam.foad.nfa035.badges.wallet.fileutils.streaming.media.impl.ImageByteArrayFrame {
        }
      }
    }
  }
  

  namespace fr.cnam.foad.nfa035.badges.wallet.fileutils.streaming {
    namespace media {
      namespace impl {
        class fr.cnam.foad.nfa035.badges.wallet.fileutils.streaming.media.impl.ImageFileFrame {
        }
      }
    }
  }
  

  namespace fr.cnam.foad.nfa035.badges.wallet.fileutils.streaming {
    namespace media {
      namespace impl {
        class fr.cnam.foad.nfa035.badges.wallet.fileutils.streaming.media.impl.ResumableImageFileFrame {
        }
      }
    }
  }
  

  namespace fr.cnam.foad.nfa035.badges.wallet.fileutils.streaming {
    namespace serializer {
      abstract class fr.cnam.foad.nfa035.badges.wallet.fileutils.streaming.serializer.AbstractStreamingImageDeserializer {
      }
    }
  }
  

  namespace fr.cnam.foad.nfa035.badges.wallet.fileutils.streaming {
    namespace serializer {
      abstract class fr.cnam.foad.nfa035.badges.wallet.fileutils.streaming.serializer.AbstractStreamingImageSerializer {
      }
    }
  }
  

  namespace fr.cnam.foad.nfa035.badges.wallet.fileutils.streaming {
    namespace serializer {
      interface fr.cnam.foad.nfa035.badges.wallet.fileutils.streaming.serializer.BadgeDeserializer {
      }
    }
  }
  

  namespace fr.cnam.foad.nfa035.badges.wallet.fileutils.streaming {
    namespace serializer {
      interface fr.cnam.foad.nfa035.badges.wallet.fileutils.streaming.serializer.DatabaseDeserializer {
      }
    }
  }
  

  namespace fr.cnam.foad.nfa035.badges.wallet.fileutils.streaming {
    namespace serializer {
      interface fr.cnam.foad.nfa035.badges.wallet.fileutils.streaming.serializer.ImageStreamingDeserializer {
      }
    }
  }
  

  namespace fr.cnam.foad.nfa035.badges.wallet.fileutils.streaming {
    namespace serializer {
      interface fr.cnam.foad.nfa035.badges.wallet.fileutils.streaming.serializer.ImageStreamingSerializer {
      }
    }
  }
  

  namespace fr.cnam.foad.nfa035.badges.wallet.fileutils.streaming {
    namespace serializer {
      namespace impl {
        class fr.cnam.foad.nfa035.badges.wallet.fileutils.streaming.serializer.impl.ImageDeserializerBase64DatabaseImpl {
        }
      }
    }
  }
  

  namespace fr.cnam.foad.nfa035.badges.wallet.fileutils.streaming {
    namespace serializer {
      namespace impl {
        class fr.cnam.foad.nfa035.badges.wallet.fileutils.streaming.serializer.impl.ImageDeserializerBase64StreamingImpl {
        }
      }
    }
  }
  

  namespace fr.cnam.foad.nfa035.badges.wallet.fileutils.streaming {
    namespace serializer {
      namespace impl {
        class fr.cnam.foad.nfa035.badges.wallet.fileutils.streaming.serializer.impl.ImageSerializerBase64DatabaseBetaImpl {
        }
      }
    }
  }
  

  namespace fr.cnam.foad.nfa035.badges.wallet.fileutils.streaming {
    namespace serializer {
      namespace impl {
        class fr.cnam.foad.nfa035.badges.wallet.fileutils.streaming.serializer.impl.ImageSerializerBase64DatabaseImpl {
        }
      }
    }
  }
  

  namespace fr.cnam.foad.nfa035.badges.wallet.fileutils.streaming {
    namespace serializer {
      namespace impl {
        class fr.cnam.foad.nfa035.badges.wallet.fileutils.streaming.serializer.impl.ImageSerializerBase64StreamingImpl {
        }
      }
    }
  }
  

  fr.cnam.foad.nfa035.badges.wallet.dao.impl.MultiBadgeWalletDAOImpl .up.|> fr.cnam.foad.nfa035.badges.wallet.dao.BadgeWalletDAO
  fr.cnam.foad.nfa035.badges.wallet.dao.impl.MultiBadgeWalletDAOImpl o-- fr.cnam.foad.nfa035.badges.wallet.fileutils.streaming.media.ResumableImageFrameMedia : media
  fr.cnam.foad.nfa035.badges.wallet.dao.impl.SingleBadgeWalletDAOImpl .up.|> fr.cnam.foad.nfa035.badges.wallet.dao.BadgeWalletDAO
  fr.cnam.foad.nfa035.badges.wallet.dao.impl.SingleBadgeWalletDAOImpl o-- fr.cnam.foad.nfa035.badges.wallet.fileutils.streaming.media.ImageFrameMedia : media
  fr.cnam.foad.nfa035.badges.wallet.fileutils.simpleaccess.ImageSerializerBase64Impl .up.|> fr.cnam.foad.nfa035.badges.wallet.fileutils.simpleaccess.ImageSerializer
  fr.cnam.foad.nfa035.badges.wallet.fileutils.streaming.media.AbstractImageFrameMedia .up.|> fr.cnam.foad.nfa035.badges.wallet.fileutils.streaming.media.ImageFrameMedia
  fr.cnam.foad.nfa035.badges.wallet.fileutils.streaming.media.AbstractImageFrameMedia o-- T : channel
  fr.cnam.foad.nfa035.badges.wallet.fileutils.streaming.media.impl.ImageByteArrayFrame -up-|> fr.cnam.foad.nfa035.badges.wallet.fileutils.streaming.media.AbstractImageFrameMedia
  fr.cnam.foad.nfa035.badges.wallet.fileutils.streaming.media.impl.ImageFileFrame -up-|> fr.cnam.foad.nfa035.badges.wallet.fileutils.streaming.media.AbstractImageFrameMedia
  fr.cnam.foad.nfa035.badges.wallet.fileutils.streaming.media.impl.ResumableImageFileFrame .up.|> fr.cnam.foad.nfa035.badges.wallet.fileutils.streaming.media.ResumableImageFrameMedia
  fr.cnam.foad.nfa035.badges.wallet.fileutils.streaming.media.impl.ResumableImageFileFrame -up-|> fr.cnam.foad.nfa035.badges.wallet.fileutils.streaming.media.AbstractImageFrameMedia
  fr.cnam.foad.nfa035.badges.wallet.fileutils.streaming.serializer.AbstractStreamingImageDeserializer .up.|> fr.cnam.foad.nfa035.badges.wallet.fileutils.streaming.serializer.ImageStreamingDeserializer
  fr.cnam.foad.nfa035.badges.wallet.fileutils.streaming.serializer.AbstractStreamingImageSerializer .up.|> fr.cnam.foad.nfa035.badges.wallet.fileutils.streaming.serializer.ImageStreamingSerializer
  fr.cnam.foad.nfa035.badges.wallet.fileutils.streaming.serializer.impl.ImageDeserializerBase64DatabaseImpl .up.|> fr.cnam.foad.nfa035.badges.wallet.fileutils.streaming.serializer.DatabaseDeserializer
  fr.cnam.foad.nfa035.badges.wallet.fileutils.streaming.serializer.impl.ImageDeserializerBase64StreamingImpl -up-|> fr.cnam.foad.nfa035.badges.wallet.fileutils.streaming.serializer.AbstractStreamingImageDeserializer
  fr.cnam.foad.nfa035.badges.wallet.fileutils.streaming.serializer.impl.ImageSerializerBase64DatabaseBetaImpl -up-|> fr.cnam.foad.nfa035.badges.wallet.fileutils.streaming.serializer.AbstractStreamingImageSerializer
  fr.cnam.foad.nfa035.badges.wallet.fileutils.streaming.serializer.impl.ImageSerializerBase64DatabaseImpl -up-|> fr.cnam.foad.nfa035.badges.wallet.fileutils.streaming.serializer.AbstractStreamingImageSerializer
  fr.cnam.foad.nfa035.badges.wallet.fileutils.streaming.serializer.impl.ImageSerializerBase64StreamingImpl -up-|> fr.cnam.foad.nfa035.badges.wallet.fileutils.streaming.serializer.AbstractStreamingImageSerializer


right footer


PlantUML diagram generated by SketchIt! (https://bitbucket.org/pmesmeur/sketch.it)
For more information about this tool, please contact philippe.mesmeur@gmail.com
endfooter

@enduml
